\relax 
\providecommand\babel@aux[2]{}
\@nameuse{bbl@beforestart}
\providecommand\hyper@newdestlabel[2]{}
\providecommand\HyperFirstAtBeginDocument{\AtBeginDocument}
\HyperFirstAtBeginDocument{\ifx\hyper@anchor\@undefined
\global\let\oldnewlabel\newlabel
\gdef\newlabel#1#2{\newlabelxx{#1}#2}
\gdef\newlabelxx#1#2#3#4#5#6{\oldnewlabel{#1}{{#2}{#3}}}
\AtEndDocument{\ifx\hyper@anchor\@undefined
\let\newlabel\oldnewlabel
\fi}
\fi}
\global\let\hyper@last\relax 
\gdef\HyperFirstAtBeginDocument#1{#1}
\providecommand\HyField@AuxAddToFields[1]{}
\providecommand\HyField@AuxAddToCoFields[2]{}
\babel@aux{nil}{}
\@writefile{toc}{\contentsline {section}{\numberline {1}Introduction}{3}{section.1}\protected@file@percent }
\@writefile{toc}{\contentsline {subsection}{\numberline {1.1}Objectif du TP }{3}{subsection.1.1}\protected@file@percent }
\@writefile{toc}{\contentsline {subsection}{\numberline {1.2}Mersenne-Twister }{3}{subsection.1.2}\protected@file@percent }
\@writefile{toc}{\contentsline {paragraph}{Note :}{3}{section*.2}\protected@file@percent }
\@writefile{toc}{\contentsline {subsection}{\numberline {1.3}Vérification de la portabilité de Mersenne-Twister}{3}{subsection.1.3}\protected@file@percent }
\@writefile{toc}{\contentsline {section}{\numberline {2}Génération de nombres uniformes entre a et b}{4}{section.2}\protected@file@percent }
\@writefile{toc}{\contentsline {paragraph}{Note :}{4}{section*.3}\protected@file@percent }
\@writefile{toc}{\contentsline {paragraph}{Note 2 :}{4}{section*.4}\protected@file@percent }
\@writefile{toc}{\contentsline {section}{\numberline {3}Reproduction d'une distribution aléatoire à partir d'une population}{4}{section.3}\protected@file@percent }
\@writefile{lof}{\contentsline {figure}{\numberline {1}{\ignorespaces Graphique question 3\relax }}{5}{figure.1}\protected@file@percent }
\newlabel{fig1}{{1}{5}{Graphique question 3\relax }{figure.1}{}}
\@writefile{toc}{\contentsline {paragraph}{Note :}{5}{section*.5}\protected@file@percent }
\@writefile{toc}{\contentsline {section}{\numberline {4}Distributions aléatoires continues}{5}{section.4}\protected@file@percent }
\@writefile{toc}{\contentsline {subsection}{\numberline {4.1}Avec une fonction réversible}{6}{subsection.4.1}\protected@file@percent }
\@writefile{toc}{\contentsline {paragraph}{Note :}{6}{section*.6}\protected@file@percent }
\@writefile{lof}{\contentsline {figure}{\numberline {2}{\ignorespaces Graphique question 4\relax }}{6}{figure.2}\protected@file@percent }
\newlabel{fig2}{{2}{6}{Graphique question 4\relax }{figure.2}{}}
\@writefile{toc}{\contentsline {paragraph}{Note :}{7}{section*.7}\protected@file@percent }
\@writefile{toc}{\contentsline {subsection}{\numberline {4.2}Avec une fonction non réversible}{7}{subsection.4.2}\protected@file@percent }
\@writefile{toc}{\contentsline {subsubsection}{\numberline {4.2.1}Avec des dés}{7}{subsubsection.4.2.1}\protected@file@percent }
\@writefile{lof}{\contentsline {figure}{\numberline {3}{\ignorespaces Graphique question 5.1\relax }}{7}{figure.3}\protected@file@percent }
\newlabel{fig3}{{3}{7}{Graphique question 5.1\relax }{figure.3}{}}
\@writefile{toc}{\contentsline {subsubsection}{\numberline {4.2.2}Avec Box et Muller}{8}{subsubsection.4.2.2}\protected@file@percent }
\@writefile{lof}{\contentsline {figure}{\numberline {4}{\ignorespaces Graphique question 5.2\relax }}{8}{figure.4}\protected@file@percent }
\newlabel{fig4}{{4}{8}{Graphique question 5.2\relax }{figure.4}{}}
\@writefile{toc}{\contentsline {section}{\numberline {5}Conclusion}{8}{section.5}\protected@file@percent }
\gdef \@abspage@last{9}
