\relax 
\providecommand \babel@aux [2]{\global \let \babel@toc \@gobbletwo }
\@nameuse{bbl@beforestart}
\catcode `:\active 
\catcode `;\active 
\catcode `!\active 
\catcode `?\active 
\providecommand\hyper@newdestlabel[2]{}
\providecommand\HyField@AuxAddToFields[1]{}
\providecommand\HyField@AuxAddToCoFields[2]{}
\babel@aux{french}{}
\@writefile{toc}{\contentsline {section}{\numberline {1}Introduction}{3}{section.1}\protected@file@percent }
\@writefile{toc}{\contentsline {subsection}{\numberline {1.1}Objectif du TP :}{3}{subsection.1.1}\protected@file@percent }
\@writefile{toc}{\contentsline {subsection}{\numberline {1.2}Mersenne-Twister :}{3}{subsection.1.2}\protected@file@percent }
\@writefile{toc}{\contentsline {paragraph}{Note :}{3}{section*.2}\protected@file@percent }
\@writefile{toc}{\contentsline {section}{\numberline {2}Trouver $\pi $ à partir d'un quart de cercle}{3}{section.2}\protected@file@percent }
\@writefile{toc}{\contentsline {paragraph}{Note :}{3}{section*.3}\protected@file@percent }
\@writefile{toc}{\contentsline {section}{\numberline {3}Erreur moyenne}{4}{section.3}\protected@file@percent }
\@writefile{toc}{\contentsline {section}{\numberline {4}Intervalles de confiance}{4}{section.4}\protected@file@percent }
\@writefile{toc}{\contentsline {section}{\numberline {5}Conclusion}{4}{section.5}\protected@file@percent }
\gdef \@abspage@last{4}
