\babel@toc {french}{}\relax 
\contentsline {section}{\numberline {1}Introduction}{3}{section.1}%
\contentsline {subsection}{\numberline {1.1}Objectif du TP :}{3}{subsection.1.1}%
\contentsline {subsection}{\numberline {1.2}Mersenne-Twister :}{3}{subsection.1.2}%
\contentsline {paragraph}{Note :}{3}{section*.2}%
\contentsline {section}{\numberline {2}Trouver $\pi $ à partir d'un quart de cercle}{3}{section.2}%
\contentsline {paragraph}{Note :}{3}{section*.3}%
\contentsline {section}{\numberline {3}Erreur moyenne}{4}{section.3}%
\contentsline {section}{\numberline {4}Intervalles de confiance}{4}{section.4}%
\contentsline {section}{\numberline {5}Conclusion}{4}{section.5}%
